29 0.15485346081895657 0.5282805429864253 0.07482851797963003 0.5316742081447964
23 0.23747661608813136 0.5433634992458521 0.08210351278320517 0.5392156862745097
0 0.35335689045936397 0.5490196078431373 0.07482851797963 0.5203619909502263
6 0.4411764705882354 0.5584464555052792 0.07378923300769073 0.5316742081447965
10 0.5497817501558928 0.5414781297134238 0.08937850758678036 0.5429864253393664
1 0.6563084597796717 0.552790346907994 0.07378923300769069 0.5505279034690799
6 0.7410101849927251 0.5678733031674209 0.0706713780918728 0.5505279034690801
8 0.8231136977759301 0.5773001508295627 0.0706713780918728 0.5693815987933636
9 0.905736853045105 0.5659879336349924 0.07378923300769069 0.5467571644042232
